﻿{
	"$schema": "http://json.schemastore.org/launchsettings.json",
	"iisSettings": {
		"windowsAuthentication": false,
		"anonymousAuthentication": true,
		"iisExpress": {
			"applicationUrl": "http://localhost:63134",
			"sslPort": 0
		}
	},
	"profiles": {
		"AspNetCoreDemo.Web": {
			"commandName": "Project",
			"dotnetRunMessages": "true",
			"launchBrowser": true,
			"launchUrl": "",
			"applicationUrl": "http://localhost:5000",
			"environmentVariables": {
				"ASPNETCORE_ENVIRONMENT": "Development"
			}
		},
		"IIS Express": {
			"commandName": "IISExpress",
			"launchBrowser": true,
			"launchUrl": "",
			"environmentVariables": {
				"ASPNETCORE_ENVIRONMENT": "Development"
			}
		}
	}
}
